%YAML 1.1
%TAG !u! tag:unity3d.com,2011:
--- !u!13 &1
InputManager:
  m_ObjectHideFlags: 0
  m_Axes:
  - serializedVersion: 3
    m_Name: HorizontalMovement
    descriptiveName: 
    descriptiveNegativeName: 
    negativeButton: a
    positiveButton: d
    altNegativeButton: left
    altPositiveButton: right
    gravity: 1000
    dead: .25
    sensitivity: 1000
    snap: 1
    invert: 0
    type: 0
    axis: 0
    joyNum: 0
  - serializedVersion: 3
    m_Name: VerticalMovement
    descriptiveName: 
    descriptiveNegativeName: 
    negativeButton: s
    positiveButton: w
    altNegativeButton: down
    altPositiveButton: up
    gravity: 1000
    dead: .25
    sensitivity: 1000
    snap: 1
    invert: 0
    type: 0
    axis: 1
    joyNum: 0
  - serializedVersion: 3
    m_Name: Fire
    descriptiveName: 
    descriptiveNegativeName: 
    negativeButton: 
    positiveButton: mouse 0
    altNegativeButton: 
    altPositiveButton: enter
    gravity: 1000
    dead: .25
    sensitivity: 1000
    snap: 1
    invert: 0
    type: 0
    axis: 1
    joyNum: 0
  - serializedVersion: 3
    m_Name: AttackType
    descriptiveName: 
    descriptiveNegativeName: 
    negativeButton: q
    positiveButton: e
    altNegativeButton: 
    altPositiveButton: 
    gravity: 1000
    dead: .25
    sensitivity: 1000
    snap: 1
    invert: 0
    type: 0
    axis: 1
    joyNum: 0
